

#Run Scripts:

                register_migration_script                
---------------------------------------------------------
 201512121402_IDEMPIERE-2970.sql successfully registered
(1 row)

                    register_migration_script                     
------------------------------------------------------------------
 201706221744_AutomaticExternalPackin.sql successfully registered
(1 row)

                register_migration_script                
---------------------------------------------------------
 201709131604_IDEMPIERE-3486.sql successfully registered
(1 row)

                register_migration_script                
---------------------------------------------------------
 201710271720_IDEMPIERE-3532.sql successfully registered
(1 row)

                register_migration_script                
---------------------------------------------------------
 201711061600_IDEMPIERE-3546.sql successfully registered
(1 row)

                register_migration_script                
---------------------------------------------------------
 201711061621_IDEMPIERE-3547.sql successfully registered
(1 row)

               register_migration_script                
--------------------------------------------------------
 201711071510_IDEMPIERE-905.sql successfully registered
(1 row)

