<?xml version="1.0" encoding="UTF-8"?>
<session version="1.0">
<refactoring accessors="true" comment="Delete 10 elements from project &apos;org.zkoss.zk.library&apos;&#x0A;- Original project: &apos;org.zkoss.zk.library&apos;&#x0A;- Original elements:&#x0A;     zcommon-7.0.3.jar&#x0A;     zel-7.0.3.jar&#x0A;     zhtml-7.0.3.jar&#x0A;     zk-7.0.3.jar&#x0A;     zkbind-7.0.3.jar&#x0A;     zkmax-3.6.3.jar&#x0A;     zkplus-7.0.3.jar&#x0A;     zkspring-core-3.0.jar&#x0A;     zul-7.0.3.jar&#x0A;     zweb-7.0.3.jar" description="Delete elements" element1="lib/zk-7.0.3.jar" element10="lib/zhtml-7.0.3.jar" element2="lib/zel-7.0.3.jar" element3="lib/zkbind-7.0.3.jar" element4="lib/zcommon-7.0.3.jar" element5="lib/zkmax-3.6.3.jar" element6="lib/zweb-7.0.3.jar" element7="lib/zkplus-7.0.3.jar" element8="lib/zul-7.0.3.jar" element9="lib/zkspring-core-3.0.jar" elements="0" flags="589830" id="org.eclipse.jdt.ui.delete" resources="10" stamp="1564565966887" subPackages="false" version="1.0"/>
</session>