*** 2020-01-06 09:57:59.679 idempiere Log (CLogFile) ***
09:57:59.679 Adempiere.startup: iDempiere(r) Release 5.1_2017-10-31 -Smart Suite ERP, CRM and SCM- (c) 1999-2016 iDempiere(r); Implementation: iDempiere - Supported by iDempiere community [19]
09:57:59.681 Ini.loadProperties: /home/budiest93/Documents/personal/idempiere-next/idempiere-MAS/idempiere.properties #36 [19]
09:58:00.342 DB.isBuildOK: Build DB=${env.ADEMPIERE_VERSION} 20080428-1232 [19]
09:58:00.342 DB.isBuildOK: Build Cl=5.1.0.qualifier [19]
09:58:00.366-----------> DB.isBuildOK: Build Version Error 

The program assumes build version 5.1.0.qualifier, but database has build version ${env.ADEMPIERE_VERSION} 20080428-1232. 
This is likely to cause hard to fix errors. 
Please contact administrator. [19]
09:58:02.069 Language.getLanguage: Adding Language=en, Country=US, Locale=en_ID [19]
09:58:02.072 Language.getLanguage: Adding Language=en, Country=US, Locale=en_ID [19]
09:58:02.250 WebEnv.initWeb: Servlet Context Init Parameters: iDempiere Root
org.eclipse.jetty.servlet.SessionCookie=ROOT_SESSIONID
ServerRoot=1 [19]
09:58:02.269-----------> EMail.createAuthenticator: Ignored - hongiman@gmail.com/null [19]
09:58:03.486-----------> DeploymentManager.requestAppGoal: Unable to reach node goal: started [19]
java.lang.NoClassDefFoundError: sun/security/ssl/SupportedEllipticCurvesExtension
	at sun.security.ssl.ClientHandshaker.getKickstartMessage(ClientHandshaker.java:1438)
	at sun.security.ssl.Handshaker.kickstart(Handshaker.java:1087)
	at sun.security.ssl.SSLSocketImpl.kickstartHandshake(SSLSocketImpl.java:1497)
	at sun.security.ssl.SSLSocketImpl.performInitialHandshake(SSLSocketImpl.java:1361)
	at sun.security.ssl.SSLSocketImpl.startHandshake(SSLSocketImpl.java:1413)
	at sun.security.ssl.SSLSocketImpl.startHandshake(SSLSocketImpl.java:1397)
	at com.sun.mail.util.SocketFetcher.configureSSLSocket(SocketFetcher.java:619)
	at com.sun.mail.util.SocketFetcher.startTLS(SocketFetcher.java:546)
	at com.sun.mail.smtp.SMTPTransport.startTLS(SMTPTransport.java:2135)
	at com.sun.mail.smtp.SMTPTransport.protocolConnect(SMTPTransport.java:738)
	at javax.mail.Service.connect(Service.java:366)
	at javax.mail.Service.connect(Service.java:246)
	at javax.mail.Service.connect(Service.java:195)
	at org.compiere.util.EMail.send(EMail.java:366)
	at org.compiere.interfaces.impl.ServerBean.sendEMail(ServerBean.java:139)
	at org.compiere.model.MClient.sendEMail(MClient.java:659)
	at org.compiere.model.MClient.sendEMail(MClient.java:634)
	at org.compiere.util.WebEnv.initWeb(WebEnv.java:185)
	at org.compiere.util.WebEnv.initWeb(WebEnv.java:129)
	at org.compiere.web.AdempiereMonitor.init(AdempiereMonitor.java:1147)
	at org.eclipse.jetty.servlet.ServletHolder.initServlet(ServletHolder.java:637)

09:58:05.498           LoggedSessionListener.contextInitialized: context initialized [19]
09:58:05.579-----------> ClassLocator.getDependentXMLResources: Replicate resource: breeze
Overwrite bundleresource://200.fwk889486595:4/metainfo/zk/config.xml
with bundleresource://200.fwk889486595:10/metainfo/zk/config.xml [19]
09:58:05.585-----------> ClassLocator.getDependentXMLResources: Replicate resource: ckez
Overwrite bundleresource://65.fwk889486595:2/metainfo/zk/config.xml
with bundleresource://65.fwk889486595:5/metainfo/zk/config.xml [19]
09:58:05.587-----------> ClassLocator.getDependentXMLResources: Replicate resource: ckez
Overwrite bundleresource://65.fwk889486595:5/metainfo/zk/config.xml
with jar:file:/home/budiest93/Documents/personal/idempiere-next/idempiere-MAS/org.adempiere.ui.zk/WEB-INF/lib/ckez.jar!/metainfo/zk/config.xml [19]
09:58:06.034-----------> ClassLocator.getDependentXMLResources: Replicate resource: calendar
Overwrite bundleresource://200.fwk889486595/metainfo/zk/lang-addon.xml
with bundleresource://200.fwk889486595:6/metainfo/zk/lang-addon.xml [19]
09:58:06.037-----------> ClassLocator.getDependentXMLResources: Replicate resource: gmapsz
Overwrite bundleresource://200.fwk889486595:1/metainfo/zk/lang-addon.xml
with bundleresource://200.fwk889486595:7/metainfo/zk/lang-addon.xml [19]
09:58:06.040-----------> ClassLocator.getDependentXMLResources: Replicate resource: timeline
Overwrite bundleresource://200.fwk889486595:2/metainfo/zk/lang-addon.xml
with bundleresource://200.fwk889486595:8/metainfo/zk/lang-addon.xml [19]
09:58:06.042-----------> ClassLocator.getDependentXMLResources: Replicate resource: timeplot
Overwrite bundleresource://200.fwk889486595:3/metainfo/zk/lang-addon.xml
with bundleresource://200.fwk889486595:9/metainfo/zk/lang-addon.xml [19]
09:58:06.045-----------> ClassLocator.getDependentXMLResources: Replicate resource: breeze
Overwrite bundleresource://200.fwk889486595:4/metainfo/zk/lang-addon.xml
with bundleresource://200.fwk889486595:10/metainfo/zk/lang-addon.xml [19]
09:58:06.052-----------> ClassLocator.getDependentXMLResources: Replicate resource: ckez
Overwrite bundleresource://65.fwk889486595:2/metainfo/zk/lang-addon.xml
with bundleresource://65.fwk889486595:5/metainfo/zk/lang-addon.xml [19]
09:58:06.054-----------> ClassLocator.getDependentXMLResources: Replicate resource: ckez
Overwrite bundleresource://65.fwk889486595:5/metainfo/zk/lang-addon.xml
with jar:file:/home/budiest93/Documents/personal/idempiere-next/idempiere-MAS/org.adempiere.ui.zk/WEB-INF/lib/ckez.jar!/metainfo/zk/lang-addon.xml [19]
09:58:06.208-----------> DefaultAnnotationProcessor.fallbackToManualAnnotatedClasses: Unable to detect annotations. Application may fail to deploy. [19]

*** 2020-01-06 09:58:06.459 idempiere Log (CLogFile) ***
10:04:03.343-----------> SecurityProviderImpl.authenticate: User not found: 'BayuSystem [71]
