*** 2020-01-04 18:20:06.665 idempiere Log (CLogFile) ***
18:20:06.664 Adempiere.startup: iDempiere(r) Release 5.1_2017-10-31 -Smart Suite ERP, CRM and SCM- (c) 1999-2016 iDempiere(r); Implementation: iDempiere - Supported by iDempiere community [19]
18:20:06.666 Ini.loadProperties: /home/budiest93/Documents/personal/idempiere-next/idempiere-MAS/idempiere.properties #36 [19]
18:20:07.336 DB.isBuildOK: Build DB=${env.ADEMPIERE_VERSION} 20080428-1232 [19]
18:20:07.337 DB.isBuildOK: Build Cl=5.1.0.qualifier [19]
18:20:07.357-----------> DB.isBuildOK: Build Version Error 

The program assumes build version 5.1.0.qualifier, but database has build version ${env.ADEMPIERE_VERSION} 20080428-1232. 
This is likely to cause hard to fix errors. 
Please contact administrator. [19]
18:20:08.876 Language.getLanguage: Adding Language=en, Country=US, Locale=en_ID [19]
18:20:08.878 Language.getLanguage: Adding Language=en, Country=US, Locale=en_ID [19]
18:20:09.068 WebEnv.initWeb: Servlet Context Init Parameters: iDempiere Root
org.eclipse.jetty.servlet.SessionCookie=ROOT_SESSIONID
ServerRoot=1 [19]
18:20:09.087-----------> EMail.createAuthenticator: Ignored - hongiman@gmail.com/null [19]
18:20:10.882-----------> DeploymentManager.requestAppGoal: Unable to reach node goal: started [19]
java.lang.NoClassDefFoundError: sun/security/ssl/SupportedEllipticCurvesExtension
	at sun.security.ssl.ClientHandshaker.getKickstartMessage(ClientHandshaker.java:1438)
	at sun.security.ssl.Handshaker.kickstart(Handshaker.java:1087)
	at sun.security.ssl.SSLSocketImpl.kickstartHandshake(SSLSocketImpl.java:1497)
	at sun.security.ssl.SSLSocketImpl.performInitialHandshake(SSLSocketImpl.java:1361)
	at sun.security.ssl.SSLSocketImpl.startHandshake(SSLSocketImpl.java:1413)
	at sun.security.ssl.SSLSocketImpl.startHandshake(SSLSocketImpl.java:1397)
	at com.sun.mail.util.SocketFetcher.configureSSLSocket(SocketFetcher.java:619)
	at com.sun.mail.util.SocketFetcher.startTLS(SocketFetcher.java:546)
	at com.sun.mail.smtp.SMTPTransport.startTLS(SMTPTransport.java:2135)
	at com.sun.mail.smtp.SMTPTransport.protocolConnect(SMTPTransport.java:738)
	at javax.mail.Service.connect(Service.java:366)
	at javax.mail.Service.connect(Service.java:246)
	at javax.mail.Service.connect(Service.java:195)
	at org.compiere.util.EMail.send(EMail.java:366)
	at org.compiere.interfaces.impl.ServerBean.sendEMail(ServerBean.java:139)
	at org.compiere.model.MClient.sendEMail(MClient.java:659)
	at org.compiere.model.MClient.sendEMail(MClient.java:634)
	at org.compiere.util.WebEnv.initWeb(WebEnv.java:185)
	at org.compiere.util.WebEnv.initWeb(WebEnv.java:129)
	at org.compiere.web.AdempiereMonitor.init(AdempiereMonitor.java:1147)
	at org.eclipse.jetty.servlet.ServletHolder.initServlet(ServletHolder.java:637)

18:20:12.895           LoggedSessionListener.contextInitialized: context initialized [19]
18:20:13.047-----------> ClassLocator.getDependentXMLResources: Replicate resource: breeze
Overwrite bundleresource://200.fwk889486595:4/metainfo/zk/config.xml
with bundleresource://200.fwk889486595:10/metainfo/zk/config.xml [19]
18:20:13.052-----------> ClassLocator.getDependentXMLResources: Replicate resource: ckez
Overwrite bundleresource://65.fwk889486595:2/metainfo/zk/config.xml
with bundleresource://65.fwk889486595:5/metainfo/zk/config.xml [19]
18:20:13.055-----------> ClassLocator.getDependentXMLResources: Replicate resource: ckez
Overwrite bundleresource://65.fwk889486595:5/metainfo/zk/config.xml
with jar:file:/home/budiest93/Documents/personal/idempiere-next/idempiere-MAS/org.adempiere.ui.zk/WEB-INF/lib/ckez.jar!/metainfo/zk/config.xml [19]
18:20:13.419-----------> ClassLocator.getDependentXMLResources: Replicate resource: calendar
Overwrite bundleresource://200.fwk889486595/metainfo/zk/lang-addon.xml
with bundleresource://200.fwk889486595:6/metainfo/zk/lang-addon.xml [19]
18:20:13.421-----------> ClassLocator.getDependentXMLResources: Replicate resource: gmapsz
Overwrite bundleresource://200.fwk889486595:1/metainfo/zk/lang-addon.xml
with bundleresource://200.fwk889486595:7/metainfo/zk/lang-addon.xml [19]
18:20:13.424-----------> ClassLocator.getDependentXMLResources: Replicate resource: timeline
Overwrite bundleresource://200.fwk889486595:2/metainfo/zk/lang-addon.xml
with bundleresource://200.fwk889486595:8/metainfo/zk/lang-addon.xml [19]
18:20:13.426-----------> ClassLocator.getDependentXMLResources: Replicate resource: timeplot
Overwrite bundleresource://200.fwk889486595:3/metainfo/zk/lang-addon.xml
with bundleresource://200.fwk889486595:9/metainfo/zk/lang-addon.xml [19]
18:20:13.428-----------> ClassLocator.getDependentXMLResources: Replicate resource: breeze
Overwrite bundleresource://200.fwk889486595:4/metainfo/zk/lang-addon.xml
with bundleresource://200.fwk889486595:10/metainfo/zk/lang-addon.xml [19]
18:20:13.434-----------> ClassLocator.getDependentXMLResources: Replicate resource: ckez
Overwrite bundleresource://65.fwk889486595:2/metainfo/zk/lang-addon.xml
with bundleresource://65.fwk889486595:5/metainfo/zk/lang-addon.xml [19]
18:20:13.436-----------> ClassLocator.getDependentXMLResources: Replicate resource: ckez
Overwrite bundleresource://65.fwk889486595:5/metainfo/zk/lang-addon.xml
with jar:file:/home/budiest93/Documents/personal/idempiere-next/idempiere-MAS/org.adempiere.ui.zk/WEB-INF/lib/ckez.jar!/metainfo/zk/lang-addon.xml [19]
18:20:13.656-----------> DefaultAnnotationProcessor.fallbackToManualAnnotatedClasses: Unable to detect annotations. Application may fail to deploy. [19]

*** 2020-01-04 18:20:13.821 idempiere Log (CLogFile) ***
18:20:57.062-----------> Login.getClients: No Apps Password [31]
18:21:02.001===========> MTree.loadNodes: Nodes w/o parent - adding to root - [Sales and Marketing, Marketing Channel, Marketing Campaign, Sales Setup, Commission Run Detail, Order Source, POS Tender Type] [27]
18:21:02.393===========> MTree.loadNodes: Nodes w/o parent - adding to root - [Sales and Marketing, Marketing Channel, Marketing Campaign, Sales Setup, Commission Run Detail, Order Source, POS Tender Type] [27]
18:21:05.079-----------> DefaultModelFactory.getClass: No class for table with it entity: UNS_PL_Return [27]
18:21:05.201-----------> DefaultModelFactory.getClass: No class for table with it entity: UNS_ProductionPayConfig [27]
18:21:05.489-----------> DefaultModelFactory.getClass: No class for table with it entity: UNS_CustomerBG [27]
18:21:17.138-----------> MLookup.doRun: C_BPartner.C_BPartner_ID: Loader - Too many records, Column=Bill_BPartner_ID, Table=C_Order [84]
18:21:19.171-----------> MLookup.doRun: M_DiscountSchemaBreak.M_DiscountSchemaBreak_ID: Loader - Too many records, Column=M_DiscountSchemaBreak_ID, Table=C_OrderLine [91]
18:21:19.668-----------> MLookup.doRun: M_DiscountSchemaBreak.M_DiscountSchemaBreak_ID: Loader - Too many records, Column=M_DiscountSchemaBreak_ID, Table=C_OrderLine [107]
18:21:19.881-----------> MLookup.doRun: M_DiscountSchemaBreak.M_DiscountSchemaBreak_ID: Loader - Too many records, Column=M_DiscountSchemaBreak_ID, Table=C_OrderLine [81]
18:21:26.987-----------> Msg.translate: NOT found: Stock [62]
18:21:33.629-----------> MOrderLine.save: beforeSave - MOrderLine[0, Line=0, Ordered=0.0, Delivered=0.0, Invoiced=0.0, Reserved=0.0, LineNet=0.0] [34]
org.adempiere.exceptions.ProductNotOnPriceListException: Product is not on PriceList - Product:LAKBAN, Price List:Pembelian Sparepart , Date:03-09-2018
	at org.compiere.model.MOrderLine.beforeSave(MOrderLine.java:888)
	at org.compiere.model.PO.save(PO.java:2096)
	at org.compiere.model.PO.saveEx(PO.java:2246)
	at com.unicore.ui.grid.CreateFromOrder.save(CreateFromOrder.java:128)
	at org.adempiere.webui.apps.form.WCreateFromWindow.save(WCreateFromWindow.java:220)
	at org.adempiere.webui.apps.form.WCreateFromWindow$1.run(WCreateFromWindow.java:150)
	at org.compiere.util.Trx.run(Trx.java:608)
	at org.compiere.util.Trx.run(Trx.java:575)
	at org.adempiere.webui.apps.form.WCreateFromWindow.onEvent(WCreateFromWindow.java:146)
	at org.zkoss.zk.ui.AbstractComponent.onEvent(AbstractComponent.java:3162)
	at org.zkoss.zk.ui.AbstractComponent.service(AbstractComponent.java:3132)
	at org.zkoss.zk.ui.AbstractComponent.service(AbstractComponent.java:3074)
	at org.zkoss.zk.ui.impl.EventProcessor.process(EventProcessor.java:138)
	at org.zkoss.zk.ui.impl.UiEngineImpl.processEvent(UiEngineImpl.java:1846)
	at org.zkoss.zk.ui.impl.UiEngineImpl.process(UiEngineImpl.java:1618)
	at org.zkoss.zk.ui.impl.UiEngineImpl.execUpdate(UiEngineImpl.java:1321)
	at org.zkoss.zk.au.http.DHtmlUpdateServlet.process(DHtmlUpdateServlet.java:606)
	at org.zkoss.zk.au.http.DHtmlUpdateServlet.doGet(DHtmlUpdateServlet.java:482)
	at org.zkoss.zk.au.http.DHtmlUpdateServlet.doPost(DHtmlUpdateServlet.java:490)
	at javax.servlet.http.HttpServlet.service(HttpServlet.java:707)
	at javax.servlet.http.HttpServlet.service(HttpServlet.java:790)

