*** 2017-10-09 09:27:54.653 idempiere Log (CLogFile) ***
09:27:54.652 Adempiere.startup: iDempiere(r) Release 4.1_2016-10-31 -Smart Suite ERP, CRM and SCM- (c) 1999-2016 iDempiere(r); Implementation: iDempiere - Supported by iDempiere community [17]
09:27:54.655 Ini.loadProperties: /home/budiest93/Documents/personal/idempiere-next/idempiere-MAS/idempiere.properties #36 [17]
09:27:55.639 DB.isBuildOK: Build DB=4.1.0.qualifier [17]
09:27:55.639 DB.isBuildOK: Build Cl=4.1.0.qualifier [17]
09:27:55.876 Language.getLanguage: Adding Language=en, Country=US, Locale=en_US [17]
09:27:55.878 Language.getLanguage: Adding Language=en, Country=US, Locale=en_US [17]
09:27:56.334 WebEnv.initWeb: Servlet Context Init Parameters: iDempiere Root
org.eclipse.jetty.servlet.SessionCookie=ROOT_SESSIONID
ServerRoot=1 [17]
09:27:56.353-----------> EMail.setFrom: you @ company.org: javax.mail.internet.AddressException: Local address contains control or whitespace in string ``you @ company.org'' [17]
09:27:56.356-----------> EMail.addTo: you @ company.org: javax.mail.internet.AddressException: Local address contains control or whitespace in string ``you @ company.org'' [17]
09:27:56.356-----------> EMail.isValid: From is invalid=null [17]
09:27:56.356-----------> EMail.isValid: From is invalid=null [17]
09:27:56.356-----------> MClient.sendEMail: Could NOT Send Email: Server started: iDempiere (Bayus-MacBook-Pro.local:192.168.88.246) to you @ company.org: Invalid Data (System) [17]
09:27:56.357 WebEnv.initWeb: Servlet Init Parameter: idempiereMonitor [17]
09:27:56.357 AdempiereMonitor.init:  [17]
09:27:59.323           LoggedSessionListener.contextInitialized: context initialized [17]
09:27:59.424-----------> ClassLocator.getDependentXMLResources: Replicate resource: ckez
Overwrite bundleresource://164.fwk436532993:1/metainfo/zk/config.xml
with bundleresource://164.fwk436532993:7/metainfo/zk/config.xml [17]
09:28:00.222-----------> ClassLocator.getDependentXMLResources: Replicate resource: calendar
Overwrite bundleresource://164.fwk436532993/metainfo/zk/lang-addon.xml
with bundleresource://164.fwk436532993:6/metainfo/zk/lang-addon.xml [17]
09:28:00.225-----------> ClassLocator.getDependentXMLResources: Replicate resource: ckez
Overwrite bundleresource://164.fwk436532993:1/metainfo/zk/lang-addon.xml
with bundleresource://164.fwk436532993:7/metainfo/zk/lang-addon.xml [17]
09:28:00.238-----------> ClassLocator.getDependentXMLResources: Replicate resource: gmapsz
Overwrite bundleresource://164.fwk436532993:2/metainfo/zk/lang-addon.xml
with bundleresource://164.fwk436532993:8/metainfo/zk/lang-addon.xml [17]
09:28:00.241-----------> ClassLocator.getDependentXMLResources: Replicate resource: timeline
Overwrite bundleresource://164.fwk436532993:3/metainfo/zk/lang-addon.xml
with bundleresource://164.fwk436532993:9/metainfo/zk/lang-addon.xml [17]
09:28:00.244-----------> ClassLocator.getDependentXMLResources: Replicate resource: timeplot
Overwrite bundleresource://164.fwk436532993:4/metainfo/zk/lang-addon.xml
with bundleresource://164.fwk436532993:10/metainfo/zk/lang-addon.xml [17]
09:28:00.447-----------> DefaultAnnotationProcessor.fallbackToManualAnnotatedClasses: Unable to detect annotations. Application may fail to deploy. [17]

*** 2017-10-09 09:28:00.865 idempiere Log (CLogFile) ***
09:28:22.711===========> MTree.loadNodes: Nodes w/o parent - adding to root - [Bill of Materials & Formula , Manufacturing Order] [34]
09:28:23.532===========> MTree.loadNodes: Nodes w/o parent - adding to root - [Bill of Materials & Formula , Manufacturing Order] [34]
09:32:03.497===========> MTree.loadNodes: Nodes w/o parent - adding to root - [Bill of Materials & Formula , Manufacturing Order] [31]
09:32:03.793===========> MTree.loadNodes: Nodes w/o parent - adding to root - [Bill of Materials & Formula , Manufacturing Order] [31]
10:00:31.120===========> MTree.loadNodes: Nodes w/o parent - adding to root - [Bill of Materials & Formula , Manufacturing Order] [82]
10:00:31.682===========> MTree.loadNodes: Nodes w/o parent - adding to root - [Bill of Materials & Formula , Manufacturing Order] [31]
10:00:39.238-----------> GridField.createDefault: Cannot parse: 0 > 0 - For input string: "0 > 0" [81]
10:01:15.730-----------> FactLine.setAmtSource: Source CR Precision 15400.000001100000000000 -> 15400.00 [147]
10:01:15.735-----------> FactLine.setAmtSource: Source DR Precision 15400.000001100000000000 -> 15400.00 [147]
10:02:22.922===========> ReportStarter.startProcess0: ReportStarter.startProcess: Can not run report - Error executing SQL statement for: sis_posisi_stok. [97]
10:02:54.513===========> ReportStarter.startProcess0: ReportStarter.startProcess: Can not run report - Error executing SQL statement for: sis_posisi_stok. [52]
10:06:12.507===========> ReportStarter.startProcess0: ReportStarter.startProcess: Can not run report - Error executing SQL statement for: sis_posisi_stok. [124]
10:07:29.199===========> ReportStarter.startProcess0: ReportStarter.startProcess: Can not run report - Error executing SQL statement for: sis_posisi_stok. [83]
10:08:28.661===========> ReportStarter.startProcess0: ReportStarter.startProcess: Can not run report - Error executing SQL statement for: sis_posisi_stok. [114]
10:23:57.932===========> MTree.loadNodes: Nodes w/o parent - adding to root - [Bill of Materials & Formula , Manufacturing Order] [82]
10:23:58.160===========> MTree.loadNodes: Nodes w/o parent - adding to root - [Bill of Materials & Formula , Manufacturing Order] [82]
